<?xml version="1.0" encoding="utf-8"?>
<!-- Generator: Adobe Illustrator 16.0.0, SVG Export Plug-In . SVG Version: 6.00 Build 0)  -->
<!DOCTYPE svg PUBLIC "-//W3C//DTD SVG 1.1//EN" "http://www.w3.org/Graphics/SVG/1.1/DTD/svg11.dtd">
<svg version="1.1" id="Calque_1" xmlns="http://www.w3.org/2000/svg" xmlns:xlink="http://www.w3.org/1999/xlink" x="0px" y="0px"
	 width="100px" height="100px" viewBox="0 0 100 100" enable-background="new 0 0 100 100" xml:space="preserve">
<g>
	<path d="M40.529,69.438L13.264,93.07c-2.493,2.162-6.303,1.89-8.465-0.604l-0.98-1.132c-2.162-2.494-1.891-6.303,0.604-8.465
		l27.471-23.811"/>
</g>
<path d="M62.838,77.209c-19.744,0-35.748-16.005-35.748-35.751c0-19.744,16.004-35.749,35.748-35.749
	c19.746,0,35.751,16.005,35.751,35.749C98.589,61.203,82.584,77.208,62.838,77.209z M88.51,41.457
	c0-14.428-11.695-26.124-26.126-26.124c-14.428,0-26.124,11.696-26.124,26.124c0,14.43,11.696,26.126,26.124,26.126
	C76.813,67.583,88.509,55.887,88.51,41.457z"/>
</svg>
