<svg xmlns="http://www.w3.org/2000/svg" xmlns:xlink="http://www.w3.org/1999/xlink" version="1.1" id="Your_Icon" x="0px" y="0px" width="100px" height="100px" viewBox="0 0 100 100" enable-background="new 0 0 100 100" xml:space="preserve">
<g>
	<g>
		<rect x="11.536" y="81.824" width="7.5" height="0.203"/>
	</g>
</g>
<g>
	<g>
		<path d="M91.807,11.827H77.82c-1.784,0-3.235,1.443-3.243,3.227v10.03H25.523V15.07c0-1.792-1.451-3.243-3.243-3.243H8.293    c-1.792,0-3.243,1.451-3.243,3.243v70.2c0,1.792,1.451,3.243,3.243,3.243H22.28c0.859,0,1.686-0.341,2.295-0.949    c0.949-0.949,0.949-0.949,0.949-8.757v-3.219h49.054v9.681c0,1.792,1.451,3.243,3.243,3.243h13.986    c1.792,0,3.243-1.451,3.243-3.243v-70.2C95.05,13.278,93.599,11.827,91.807,11.827z M19.036,82.027h-7.5v-7.395h7.5V82.027z     M19.036,67.44h-7.5v-7.192h7.5V67.44z M19.036,53.056h-7.5v-7.192h7.5V53.056z M19.036,38.673h-7.5v-7.192h7.5V38.673z     M19.036,24.289h-7.5v-5.976h7.5V24.289z M74.577,69.102H25.523V31.57h49.054V69.102z M88.563,82.027h-7.5v-7.395h7.5V82.027z     M88.563,67.44h-7.5v-7.192h7.5V67.44z M88.563,53.056h-7.5v-7.192h7.5V53.056z M88.563,38.673h-7.5v-7.192h7.5V38.673z     M88.563,24.289h-7.5v-5.976h7.5V24.289z"/>
	</g>
	<g>
		<rect x="81.064" y="81.824" width="7.5" height="0.203"/>
	</g>
</g>
<g>
	<g>
		<path d="M59.391,50.17c0,0.592-0.308,1.151-0.811,1.468l-15.195,9.641c-0.284,0.186-0.608,0.276-0.932,0.276    c-0.292,0-0.576-0.073-0.843-0.219c-0.551-0.308-0.9-0.892-0.9-1.524V40.529c0-0.641,0.349-1.224,0.9-1.532    c0.559-0.3,1.241-0.284,1.776,0.057l15.195,9.649C59.082,49.019,59.391,49.57,59.391,50.17z"/>
	</g>
</g>
</svg>