{

    "list": [
        {
            "number": 1,
            "name": "Martin Anderson",
            "current": true,
            "timeLeft": 21
        },
        {
            "number": 2,
            "name": "Eric Jackson",
            "you": true
        },
        {
            "number": 3,
            "name": "Alan White"
        },
        {
            "number": 4,
            "name": "Eric Clark"
        },
        {
            "number": 5,
            "name": "Stephan Smith"
        },
        {
            "number": 6,
            "name": "William Johnson"
        },
        {
            "number": 7,
            "name": "Michael Wilson"
        },
        {
            "number": 8,
            "name": "Mark Taylor"
        }

    ]

}