<?xml version="1.0" encoding="utf-8"?>
<!-- Generator: Adobe Illustrator 16.0.0, SVG Export Plug-In . SVG Version: 6.00 Build 0)  -->
<!DOCTYPE svg PUBLIC "-//W3C//DTD SVG 1.1//EN" "http://www.w3.org/Graphics/SVG/1.1/DTD/svg11.dtd">
<svg version="1.1" id="Layer_1" xmlns="http://www.w3.org/2000/svg" xmlns:xlink="http://www.w3.org/1999/xlink" x="0px" y="0px"
	 width="100px" height="100px" viewBox="0 0 100 100" enable-background="new 0 0 100 100" xml:space="preserve">
<path d="M93.16,0.071c-33.5-1.114-60.94,11.243-60.94,11.243L32.2,74.023c-3.411-1.354-7.559-1.676-11.771-0.651
	c-9.083,2.207-15.031,9.819-13.285,17.007s10.524,11.225,19.606,9.02c8.564-2.082,14.338-8.97,13.507-15.772l0,0V36.771
	c0,0,19.404-6.783,44.573-8.484v34.849l0,0c-3.374-1.292-7.442-1.585-11.579-0.58c-9.083,2.206-15.031,9.819-13.285,17.008
	c1.745,7.187,10.523,11.224,19.605,9.018c7.932-1.927,13.472-7.977,13.588-14.264l0.002,0.004
	C93.16,74.318,93.16,12.799,93.16,0.071z"/>
</svg>
